65001;0;300000;333750;374718;430000;494000;592000;745500;1100000;1896094;2692188;7468750;26575000;45681250;74340626;460000000;555000000;626250000;650000000;738250000;1003000000;1050000000;1380000000;1470000000;1500000000;1762500000;2025000000;2156250000;2200000000;2570000000;2785000000;2946250000;3000000000;3270000000;3450000000;3650000000;3860000000;3930000000;3982500000;4000000000;4240000000;4560000000;4670000000;4835000000;4958750000;5000000000;5180000000;5450000000;5720000000;5780000000;5800000000;6080000000;6216250000;6625000000;6712500000;6778125000;6800000000;7620000000;8520000000;8820000000;9270000000;9720000000;9860000000;10000000000;10768750000;10960937500;11249218750;11537500000;11760625000;12095312500;12430000000;13405000000;14450000000;14600000000;14750000000;14975000000;15059375000;15312500000;15650000000;15912500000;16000000000;16300000000;16600000000;16900000000;17050000000;17500000000;18025000000;18246250000;18320000000;18470000000;18620000000;18671562500;18826250000;18980937500;19096953125;19890000000;19972500000;20000000000
65002;-356;1578;1633;1703;1774;1844;1938;2047;2172;2246;2254;2249;2225;2199;2183;2041;2075;2097;2096;2136;2183;2183;2308;2346;2348;2387;2363;2324;2312;2206;2175;2202;2214;2341;2461;2608;2763;2810;2843;2858;3004;3161;3201;3241;3256;3269;3269;3240;3114;3070;3059;2884;2816;2803;2803;2816;6214;6327;6523;6500;6653;6668;6688;6701;6701;6798;6762;6849;6996;6946;7058;7292;7454;7372;7404;7576;7576;7483;7634;7554;7562;7722;7738;7886;7847;7747;7740;7639;7643;7683;7802;7841;7826;7782;7737;7900;7971;7990
0;-217;2025;2137;2258;2394;2509;2661;2812;2981;3073;3084;3084;3052;3026;3007;2799;2846;2868;2873;2935;2997;3003;3155;3188;3211;3249;3211;3182;3160;3023;2994;3028;3041;3194;3340;3503;3679;3719;3756;3780;3928;4086;4124;4166;4190;4197;4210;4194;4075;4038;4026;3862;3806;3812;3823;3823;7409;7567;7780;7763;7919;7938;7969;7985;7998;8078;8047;8130;8286;8233;8344;8588;8765;8677;8705;8879;8893;8771;8928;8852;8852;9009;9037;9193;9160;9054;9034;8911;8906;8946;9092;9139;9142;9073;9020;9188;9247;9276
0;-145;2969;3108;3244;3390;3532;3701;3858;4026;4120;4130;4137;4099;4066;4048;3837;3886;3914;3906;3977;4046;4049;4203;4239;4252;4296;4252;4212;4202;4058;4022;4071;4079;4233;4383;4549;4733;4765;4802;4819;4970;5131;5171;5212;5232;5246;5263;5263;5155;5118;5114;4972;4919;4945;4962;4975;8900;9045;9224;9192;9337;9343;9373;9392;9392;9470;9439;9520;9667;9630;9744;9995;10173;10091;10107;10264;10286;10168;10312;10243;10236;10371;10389;10527;10496;10396;10370;10256;10248;10284;10406;10445;10455;10376;10328;10472;10516;10535
0;-50;3976;4122;4250;4418;4569;4731;4883;5030;5103;5106;5109;5084;5056;5037;4821;4859;4896;4888;4953;5020;5023;5173;5211;5226;5259;5226;5176;5163;5020;4988;5021;5041;5210;5352;5527;5712;5762;5804;5822;5976;6137;6180;6226;6245;6254;6280;6280;6194;6164;6151;6030;5988;6041;6069;6083;10320;10493;10686;10644;10777;10776;10805;10824;10801;10887;10834;10920;11061;11012;11131;11366;11540;11452;11461;11630;11646;11520;11661;11582;11575;11722;11722;11882;11833;11735;11697;11564;11551;11585;11730;11766;11778;11681;11625;11792;11843;11869
0;-6;5142;5298;5442;5608;5744;5876;5982;6076;6117;6116;6113;6076;6061;6039;5812;5851;5890;5880;5949;6013;6015;6163;6201;6214;6246;6214;6155;6140;5997;5963;6001;6020;6191;6341;6515;6690;6743;6784;6796;6960;7120;7161;7205;7234;7241;7268;7278;7204;7180;7171;7063;7034;7114;7145;7168;11724;11881;12057;12018;12134;12124;12154;12160;12134;12208;12160;12226;12382;12322;12427;12657;12822;12734;12754;12913;12913;12803;12928;12854;12839;12969;12969;13108;13068;12958;12921;12827;12789;12818;12945;12981;12999;12911;12844;12976;13028;13040
0;-6;1578;1633;1703;1774;1844;1938;2047;2172;2246;2254;2249;2225;2199;2183;2041;2075;2097;2096;2136;2183;2183;2308;2346;2348;2387;2363;2324;2312;2206;2175;2202;2214;2341;2461;2608;2763;2810;2843;2858;3004;3161;3201;3241;3256;3269;3269;3240;3114;3070;3059;2884;2816;2803;2803;2816;6214;6327;6523;6500;6653;6668;6688;6701;6701;6798;6762;6849;6996;6946;7058;7292;7454;7372;7404;7576;7576;7483;7634;7554;7562;7722;7738;7886;7847;7747;7740;7639;7643;7683;7802;7841;7826;7782;7737;7900;7971;7990
0;0;5151;5305;5441;5608;5742;5876;5982;6074;6120;6120;6116;6085;6060;6040;5818;5854;5892;5879;5954;6012;6012;6162;6202;6213;6247;6213;6160;6139;5996;5964;6002;6018;6192;6341;6512;6686;6745;6784;6796;6958;7114;7162;7209;7233;7241;7267;7280;7201;7181;7171;7062;7035;7115;7145;7170;6236;6415;6595;6595;6750;6774;6832;6830;6927;6998;6951;7028;7201;7136;7149;7340;7606;7555;7573;7751;7751;7639;7775;7725;7669;7871;7925;8098;8162;7865;7673;7480;7506;7663;7853;7948;7965;7915;7820;7847;7895;7894
0;17;6633;6769;6842;6928;6987;7040;7080;7101;7119;7112;7101;7081;7059;7040;6805;6847;6884;6873;6943;7001;7001;7147;7187;7198;7228;7184;7128;7113;6963;6931;6970;6984;7157;7308;7480;7655;7709;7751;7765;7921;8080;8123;8169;8196;8202;8236;8253;8189;8171;8164;8074;8059;8164;8208;8234;7425;7635;7848;7848;8001;8029;8083;8101;8170;8247;8203;8287;8451;8390;8407;8598;8874;8805;8826;9009;9034;8900;9049;8979;8937;9132;9180;9356;9431;9134;8924;8705;8721;8907;9109;9181;9226;9159;9057;9070;9123;9135
0;45;8063;8083;8105;8099;8109;8109;8119;8119;8119;8107;8091;8077;8059;8040;7804;7839;7876;7865;7935;7989;7994;8127;8163;8173;8199;8149;8092;8075;7921;7883;7921;7938;8108;8262;8432;8609;8661;8703;8718;8875;9032;9078;9125;9154;9160;9198;9226;9175;9161;9150;9083;9083;9209;9256;9290;8760;8964;9156;9156;9291;9310;9362;9383;9443;9515;9464;9556;9718;9653;9683;9878;10150;10071;10091;10278;10298;10175;10311;10223;10192;10368;10400;10563;10625;10356;10158;9953;9968;10136;10308;10371;10407;10332;10256;10254;10297;10287
0;150;9227;9206;9206;9190;9185;9171;9165;9154;9154;9138;9117;9098;9075;9055;8813;8842;8876;8868;8937;8980;8988;9120;9155;9169;9186;9128;9072;9050;8889;8855;8883;8896;9067;9219;9385;9560;9611;9651;9663;9808;9967;10012;10060;10091;10102;10141;10175;10140;10128;10118;10067;10067;10227;10280;10320;10089;10294;10489;10475;10611;10620;10668;10690;10727;10793;10732;10817;10972;10900;10929;11111;11372;11291;11305;11495;11513;11381;11535;11435;11400;11585;11609;11787;11850;11559;11330;11116;11117;11305;11496;11552;11613;11524;11428;11428;11470;11486
0;286;10342;10333;10301;10307;10299;10293;10417;10385;10406;10385;10338;10192;10150;10128;9855;9879;9910;9901;9976;9984;9995;10132;10162;10180;10180;10099;10053;10024;9854;9830;9856;9863;10030;10169;10333;10505;10560;10595;10608;10736;10900;10945;10992;11024;11034;11081;11117;11093;11093;11079;11039;11039;11220;11279;11320;11417;11607;11794;11763;11877;11890;11940;11956;11956;12021;11954;12019;12164;12096;12113;12299;12564;12490;12487;12670;12670;12576;12711;12623;12579;12762;12774;12926;12981;12720;12514;12307;12316;12489;12661;12713;12767;12697;12619;12618;12649;12648
65003;0;20;20;20;20;20;20;20;20;38;56;74;92;110;128;146;164;182;20;20;68;116;164;212;260;308;356;404;452;500;548;20;20;20;20;20;20;20;20;20;20;20;20;20;20;20;20;30;40;50;60;70;80;90;100;110;120;130;140;20;20;19;18;17;16;15;14;13;12;11;10;9;8;20;20;20;20;20;20;20;20;20;20;20;20;20;20;20;20;20;20;20;20;20;20;20;20;20
65004;0;25;25;25;25;25;25;25;25;25;25;25;25;25;25;25;25;25;25;25;25;25;25;25;25;27;29;31;33;35;37;39;41;43;45;47;49;25;25;25;25;25;25;25;25;25;25;28;31;34;37;40;43;46;49;52;55;58;61;25;25;23;21;19;17;15;13;11;9;7;5;3;1;25;25;25;25;25;25;25;25;25;25;25;25;25;25;25;25;25;25;25;25;25;25;25;25;25
