65001;0;3000;6000;10000;15000;30000;100000
65002;-200;240;70;128;44;439;82
0;-150;109;501;486;524;11;235
0;-100;986;87;563;24;421;785
0;100;95;108;117;13;405;685
0;150;78;196;651;24;17;180
0;200;84;47;897;452;114;118
65003;0;20;20;15;25;20;20
65004;0;25;20;25;10;10;20
